<?xml version="1.0" encoding="UTF-8" standalone="no"?>
<!-- Created with Inkscape (http://www.inkscape.org/) -->

<svg
   xmlns:dc="http://purl.org/dc/elements/1.1/"
   xmlns:cc="http://creativecommons.org/ns#"
   xmlns:rdf="http://www.w3.org/1999/02/22-rdf-syntax-ns#"
   xmlns:svg="http://www.w3.org/2000/svg"
   xmlns="http://www.w3.org/2000/svg"
   xmlns:sodipodi="http://sodipodi.sourceforge.net/DTD/sodipodi-0.dtd"
   xmlns:inkscape="http://www.inkscape.org/namespaces/inkscape"
   width="300mm"
   height="425mm"
   viewBox="0 0 300 425"
   version="1.1"
   id="svg7496"
   inkscape:version="0.92.1 r15371"
   sodipodi:docname="A3 Logo.svg">
  <defs
     id="defs7490" />
  <sodipodi:namedview
     id="base"
     pagecolor="#ffffff"
     bordercolor="#666666"
     borderopacity="1.0"
     inkscape:pageopacity="0.0"
     inkscape:pageshadow="2"
     inkscape:zoom="0.35"
     inkscape:cx="431.29559"
     inkscape:cy="1017.1429"
     inkscape:document-units="mm"
     inkscape:current-layer="layer8"
     showgrid="false"
     width="300mm"
     inkscape:window-width="1276"
     inkscape:window-height="1041"
     inkscape:window-x="0"
     inkscape:window-y="18"
     inkscape:window-maximized="0" />
  <metadata
     id="metadata7493">
    <rdf:RDF>
      <cc:Work
         rdf:about="">
        <dc:format>image/svg+xml</dc:format>
        <dc:type
           rdf:resource="http://purl.org/dc/dcmitype/StillImage" />
        <dc:title></dc:title>
      </cc:Work>
    </rdf:RDF>
  </metadata>
  <g
     inkscape:label="Calque 1"
     inkscape:groupmode="layer"
     id="layer1"
     transform="translate(0,128)">
    <rect
       id="rect3681"
       width="301.8132"
       height="426.96918"
       x="-0.47207093"
       y="-128.6582"
       style="display:inline;fill:#708894;fill-opacity:0.98039216;stroke-width:0.12318236" />
  </g>
  <g
     inkscape:groupmode="layer"
     id="layer6"
     inkscape:label="Calque 2">
    <path
       style="display:inline;fill:#ffffff;fill-opacity:1;stroke:none;stroke-width:0.13999392px;stroke-linecap:butt;stroke-linejoin:miter;stroke-opacity:1"
       d="m 107.54415,224.60605 c 0.31948,-0.31055 0.67145,-0.61508 0,-1.08038 -0.99118,-0.42961 -1.10768,-2.19023 0.67523,-1.89073 3.74973,-2.81559 9.01,-0.2174 8.22102,1.94736 l 3.1553,-0.12758 c 0.99136,-1.28185 0.13824,-0.82093 0.21406,-2.10278 0.48144,-0.81781 1.3534,-0.39091 2.0885,-1.20117 -0.18636,-1.54378 0.42246,-2.28058 -0.59405,-2.92407 0.66189,-0.43048 0.9195,-1.06313 0.69024,-1.93917 l 11.20921,-3.2412 0.2701,-0.40516 -1.08041,-0.27011 1.35049,-1.35049 0.13521,-0.94535 0.5402,-0.40517 0.2701,-3.78141 4.18655,-1.75565 c -0.75863,-1.10886 -0.0414,-1.90488 0.94535,-1.75568 0.15284,-0.49866 -0.23477,-0.93733 -0.64317,-1.37367 0.54524,-0.0716 0.98012,-0.21772 1.09607,-0.57977 3.14187,-0.80741 3.71834,-0.92497 5.08418,-2.09809 1.73502,-0.16413 0.43116,-0.51453 1.01556,-1.19016 l 0.76325,0.006 0.0152,0.74687 1.21617,-0.27008 0.0408,-2.85925 0.46787,2.72347 7.0622,-0.25365 0.0874,-3.22552 c -5e-4,-0.47787 -0.44174,-0.79097 -0.94534,-1.08041 0.37708,-0.17723 0.2448,-0.43936 0.27007,-0.67526 l 0.54092,-0.1352 c -0.11571,-4.34494 -0.22594,-3.15116 -0.13581,-4.72676 0.11571,-0.54021 -0.39,-0.74617 -0.8021,-1.28638 l 0.66707,-0.0642 2.54136,-4.87682 4.01337,-4.9e-4 c -0.0743,-2.16839 0.83841,-5.00983 -0.47748,-6.33171 0.61031,-1.10962 -0.0953,-1.62118 -0.16717,-2.44662 1.15935,-0.38754 1.00793,-1.52374 1.7154,-2.58912 0.0576,-0.43308 0.49094,-0.0414 0.57852,-0.40557 1.09749,-4.56275 3.56829,-6.3409 6.24638,-7.11841 0.61798,-2.21269 0.29567,-3.79848 0.4051,-5.67212 h -0.67519 l 0.0397,-0.34103 0.59542,-0.0716 0.31036,-0.80279 0.36488,0.80279 0.68275,0.14313 0.0642,0.38059 -0.57161,0.0243 c -0.35779,1.78152 -0.23019,4.76826 0.68347,5.4102 6.00216,3.06383 5.65156,7.1181 7.85679,10.30483 l -0.0396,-13.66543 c 0.25669,-1.49983 -1.06598,-1.75884 -1.62062,-2.6212 l 0.88875,-0.50746 c -0.0789,-0.76909 0.67789,-1.57339 -0.4761,-2.29724 l 0.8511,-0.27832 c -0.22441,-0.75587 -0.0152,-1.57146 -0.68341,-2.13694 0.46871,-0.36066 1.44688,-0.78009 0.36419,-0.96175 -0.14587,-0.39921 -0.35116,-1.24418 -0.84916,-1.17379 0.73965,0.3682 1.53052,0.66969 1.64882,-0.2844 0.042,-0.33891 0.78229,0.62684 1.24247,0.46649 0.0213,0.80991 0.0801,1.48812 -0.1431,3.15324 0.99225,0.53777 1.38723,0.41853 1.75564,0.27008 0.41679,-0.22502 0.98057,-0.7128 0.64389,-0.93789 0.99772,-0.95115 0.46271,-1.69592 0.0792,-2.5891 1.24568,-0.81317 0.009,-1.22068 0.0396,-1.89073 0.28196,-0.57383 0.65327,-0.16534 0.99309,-0.10293 0.34313,-2.32083 0.1492,-3.83613 0,-5.41841 l -0.38874,-0.30912 c -0.12364,-0.53256 -0.003,-1.01617 0.1903,-1.48555 0.69024,-0.16048 1.07859,-0.57279 1.39008,-1.04903 0.83525,-1.53086 0.52384,-1.87911 0.15954,-2.99428 0.46089,-0.27253 0.0698,-0.69618 0.18941,-1.33483 1.07953,-0.6509 0.44603,-4.09596 0.59685,-5.99819 -0.67972,-0.13946 -0.87664,-1.20346 -0.72979,-4.01335 0.23931,-1.02965 0.85788,-1.64465 1.09538,-2.42133 0.18271,-1.03071 -0.31071,-2.08896 1.01626,-2.18326 1.02551,0.48348 0.38262,1.54351 0.96782,2.39884 1.30972,-0.6449 2.18537,0.28654 2.53532,1.83336 -0.33285,0.19762 -0.67273,0.34599 -1.0683,0.10439 -0.085,0.66531 0.0402,1.42293 0.32962,2.02577 0.10081,0.27162 0.54373,0.33663 -0.28013,0.72398 0.20036,2.08253 0.94144,4.26052 0.15924,6.16971 l -0.69021,-0.31034 c -0.0387,0.72997 -0.30206,1.39588 0.0634,2.24135 0.25363,2.0149 0.0721,3.99597 2.10627,5.2349 -0.006,0.42831 0.0496,0.86588 -0.36527,1.23179 l 0.031,4.14709 c 0.17388,0.94193 0.0243,1.8124 0.71478,2.86883 0.0371,1.30483 0.0898,2.6058 -0.11996,3.9724 l 2.77403,-5.5e-4 c 0.38872,-1.44487 -0.69186,-2.45176 -0.087,-4.19407 l 0.57155,-0.11055 c -0.0691,-1.38912 1.31231,-0.0676 2.23924,-0.59685 0.0712,1.01447 -0.52504,1.40745 -1.23933,1.84225 l 1.16022,0.40516 c -0.0999,0.51418 0.15621,0.84771 -0.42154,1.2782 -0.46086,0.71416 0.361,1.1084 0.0649,2.00259 -0.72703,1.19283 0.2911,1.99695 0.914,2.39204 -0.7465,0.76232 -1.75068,1.45207 -1.47876,2.58093 0.0533,3.24918 -0.14768,7.38448 0.0183,9.74754 0.95775,1.31974 0.64886,1.145 -0.15071,2.64435 l 0.37307,14.86518 1.42891,0.12606 -0.0388,2.15473 0.50746,0.14038 0.0999,1.21482 -0.54232,-0.0305 c -0.26156,4.63082 -0.0898,10.47622 -0.0414,15.3646 l 2.12129,-0.0243 0.0634,1.11999 10.478,0.30963 c 2.3965,-0.72026 5.01204,-0.88314 7.48444,-1.16838 l 1.37155,-0.0932 -0.10103,-1.02597 1.04762,0.0484 0.17509,0.97535 c 4.54767,-0.40649 3.76091,-0.8864 5.36385,-1.40506 l 3.21667,-4.9e-4 2.18398,-2.40562 c 0.18819,-0.69322 -0.53976,-2.22275 0.95353,-1.72428 l 9.04093,-0.0319 c 0.046,7.2431 1.24539,13.93537 4.9409,17.83346 0.45071,-1.50084 1.57624,-1.39945 2.30335,-0.45898 2.93303,-1.79166 4.55518,-1.40714 6.42434,0.7291 0.65604,-0.10227 0.94096,0.0944 1.21547,0.97911 2.17529,0.39749 2.28927,0.34589 2.92043,2.39716 1.52928,-0.30706 0.96134,0.44548 0.0506,2.46467 2.11599,-0.60991 3.22747,-0.93294 3.59573,0.0183 0.31074,0.47586 -0.003,1.75564 1.45178,0.75965 0.93327,-0.0898 0.95464,0.67502 1.21544,1.21547 12.78342,5.84868 13.24421,11.60246 13.14163,13.50504 H 88.096846 c 6.31773,-11.66087 5.9853,-8.73876 19.447304,-12.55992 z"
       id="path4487"
       inkscape:connector-curvature="0"
       sodipodi:nodetypes="ccccccccccccccccccccccccccccccccccccccccsccccccccccccccccccccscccccccccccccccccccccccccccccccccccccccccccccccccccccccccccccccccccccccccc" />
    <text
       transform="scale(1.0024677,0.99753838)"
       style="font-variant:normal;font-size:54.69261169px;font-family:CairoFont-1;-inkscape-font-specification:CairoFont-1-0;writing-mode:lr-tb;display:inline;fill:#d70751;fill-opacity:1;fill-rule:nonzero;stroke:none;stroke-width:0.68197501"
       id="text44"
       x="100.87066"
       y="269.08881">
      <tspan
         x="100.87066 136.63965 157.09467 173.33847 189.14456 206.64613 218.73328 236.8365 254.88503"
         y="269.08881"
         sodipodi:role="line"
         id="tspan42"
         style="font-style:normal;font-variant:normal;font-weight:normal;font-stretch:normal;font-family:FabfeltScript;-inkscape-font-specification:FabfeltScript;stroke-width:0.68197501">Marseille</tspan>
    </text>
    <g
       style="display:inline"
       transform="matrix(0.4495225,0,0,0.4495225,-263.04047,124.17128)"
       id="g4509">
      <g
         id="g5185"
         transform="matrix(3.1667914,0,0,-3.1667914,632.48678,279.86426)">
        <path
           d="m 48.684,53.547 c -1.582,-0.024 0.296,-0.817 2.363,-1.129 0.57,0.441 1.086,0.891 1.547,1.328 C 51.309,53.434 50,53.43 48.684,53.547"
           style="fill:#d70751;fill-opacity:1;fill-rule:nonzero;stroke:none"
           id="path4592"
           inkscape:connector-curvature="0" />
        <path
           d="m 57.164,55.664 c 0.941,1.293 1.629,2.715 1.867,4.188 -0.211,-1.043 -0.777,-1.954 -1.312,-2.907 -2.953,-1.859 -0.281,1.106 -0.004,2.231 -3.172,-4 -0.434,-2.399 -0.551,-3.512"
           style="fill:#d70751;fill-opacity:1;fill-rule:nonzero;stroke:none"
           id="path4594"
           inkscape:connector-curvature="0" />
        <path
           d="m 60.297,63.809 c 0.187,2.843 -0.563,1.945 -0.817,0.855 0.297,-0.148 0.532,-2.008 0.817,-0.855"
           style="fill:#d70751;fill-opacity:1;fill-rule:nonzero;stroke:none"
           id="path4596"
           inkscape:connector-curvature="0" />
        <path
           d="m 42.691,102.695 c 0.84,-0.144 1.825,-0.265 1.684,-0.461 0.922,0.196 1.133,0.383 -1.684,0.461"
           style="fill:#d70751;fill-opacity:1;fill-rule:nonzero;stroke:none"
           id="path4598"
           inkscape:connector-curvature="0" />
        <path
           d="m 44.375,102.234 -0.594,-0.125 0.555,0.051 0.039,0.074"
           style="fill:#d70751;fill-opacity:1;fill-rule:nonzero;stroke:none"
           id="path4600"
           inkscape:connector-curvature="0" />
        <path
           d="m 73.872778,62.727 c 0.094,-2.555 -0.746,-3.793 -1.508,-5.993 l -1.363,-0.675 c -1.117,-2.176 0.113,-1.383 -0.696,-3.11 -1.742,-1.547 -5.289,-4.847 -6.425,-5.156 -0.828,0.023 0.562,0.98 0.742,1.359 -2.336,-1.601 -1.875,-2.41 -5.445,-3.386 l -0.106,0.23 c -8.809,-4.141 -21.047,4.074 -20.883,15.277 -0.097,-0.707 -0.269,-0.527 -0.465,-0.816 -0.453,5.762 2.665,11.555 7.922,13.918 5.141,2.547 11.172,1.5 14.852,-1.93 -2.02,2.649 -6.047,5.453 -10.82,5.196 -4.672,-0.071 -9.047,-3.047 -10.512,-6.274 -2.391,-1.504 -2.672,-5.808 -3.711,-6.597 -1.41,-10.325 2.637,-14.778 9.484,-20.024 1.074,-0.726 0.301,-0.836 0.446,-1.391 -2.274,1.067 -4.356,2.676 -6.071,4.641 0.91,-1.332 1.895,-2.621 3.16,-3.637 -2.144,0.727 -5.007,5.196 -5.843,5.375 3.691,-6.617 14.988,-11.601 20.91,-9.129 -2.738,-0.097 -6.219,-0.05 -9.289,1.083 -1.297,0.667 -3.055,2.042 -2.739,2.296 8.075,-3.019 16.415,-2.277 23.399,3.321 1.777,1.383 3.719,3.742 4.281,3.765 -0.844,-1.265 0.145,-0.609 -0.504,-1.73 1.77,2.859 -0.769,1.164 1.828,4.933 l 0.961,-1.324 c -0.359,2.375 2.946,5.25 2.61,9 0.758,1.145 0.847,-1.234 0.039,-3.871 1.117,2.93 0.297,3.402 0.582,5.809 0.312,-0.809 0.715,-1.672 0.926,-2.528 -0.727,2.825 0.746,4.762 1.105,6.403 -0.355,0.164 -1.117,-1.246 -1.289,2.093 0.023,1.45 0.398,0.762 0.543,1.118 -0.281,0.164 -1.027,1.277 -1.481,3.41 0.325,0.504 0.879,-1.301 1.329,-1.375 -0.289,1.699 -0.789,2.988 -0.809,4.293 -1.309,2.738 -0.465,-0.367 -1.523,1.172 -1.399,4.351 1.156,1.011 1.328,2.988 2.113,-3.059 3.316,-7.809 3.871,-9.777 -0.422,2.402 -1.102,4.718 -1.938,6.968 0.645,-0.273 -1.031,4.93 0.836,1.485 -1.996,7.347 -8.543,14.211 -14.566,17.429 0.734,-0.679 1.668,-1.519 1.336,-1.656 -2.996,1.785 -2.473,1.926 -2.903,2.68 -2.437,0.988 -2.597,-0.086 -4.211,-0.004 -4.597,2.437 -5.488,2.176 -9.722,3.711 l 0.195,-0.902 c -3.047,1.015 -3.551,-0.383 -6.844,0 -0.199,0.152 1.059,0.562 2.09,0.714 -2.945,-0.386 -2.808,0.582 -5.691,-0.113 0.711,0.504 1.461,0.832 2.222,1.258 -2.406,-0.149 -5.738,-1.402 -4.71,-0.258 -3.914,-1.754 -10.875,-4.207 -14.778,-7.867 l -0.125,0.82 c -1.789,-2.152 -7.804,-6.418 -8.281,-9.203 l -0.48,-0.105 c -0.93,-1.575 -1.532,-3.368 -2.274,-4.985 -1.215,-2.078 -1.781,-0.804 -1.609,-1.125 C 8.8607776,75.676 7.6697776,71.59 6.6417776,68.246 c 0.731,-1.094 0.016,-6.59 0.293,-10.984 -1.203,-21.727 15.2460004,-42.824 33.2270004,-47.684 2.637,-0.949 6.551,-0.914 9.887,-1.004 -3.934,1.117 -4.442,0.59 -8.27,1.93 -2.766,1.301 -3.371,2.785 -5.328,4.488 l 0.773,-1.375 c -3.839,1.36 -2.234,1.684 -5.355,2.672 l 0.828,1.082 c -1.246,0.094 -3.293,2.094 -3.855,3.207 l -1.364,-0.055 c -1.636,2.02 -2.507,3.473 -2.441,4.602 l -0.441,-0.785 c -0.497,0.851 -6.02,7.57 -3.153,6.008 -0.535,0.48 -1.242,0.789 -2.008,2.183 l 0.582,0.664 c -1.375,1.774 -2.535,4.051 -2.445,4.805 0.734,-0.996 1.242,-1.18 1.746,-1.352 -3.476,8.633 -3.672,0.481 -6.305,8.793 l 0.551,0.043 c -0.425,0.641 -0.683,1.34 -1.027,2.028 l 0.242,2.418 c -2.504,2.89 -0.695,12.312 -0.336,17.476 0.25,2.102 2.09,4.344 3.488,7.844 l -0.851,0.148 c 1.633,2.84 9.309,11.422 12.863,10.981 1.723,2.164 -0.34,0.008 -0.676,0.551 3.782,3.914 4.973,2.765 7.524,3.468 2.758,1.637 -2.36,-0.632 -1.055,0.625 4.762,1.219 3.375,2.766 9.582,3.383 0.656,-0.375 -1.519,-0.574 -2.066,-1.058 3.969,1.941 12.554,1.5 18.129,-1.075 6.468,-3.027 13.738,-11.964 14.031,-20.378 l 0.324,-0.09 c -0.164,-3.34 0.512,-7.211 -0.66,-10.754 l 0.797,1.676"
           style="fill:#d70751;fill-opacity:1;fill-rule:nonzero;stroke:none"
           id="path4602"
           inkscape:connector-curvature="0" />
        <path
           d="M 31.438,51.375 31.215,50.27 c 1.039,-1.415 1.863,-2.938 3.187,-4.036 -0.953,1.856 -1.664,2.621 -2.964,5.141"
           style="fill:#d70751;fill-opacity:1;fill-rule:nonzero;stroke:none"
           id="path4604"
           inkscape:connector-curvature="0" />
        <path
           d="m 33.891,51.473 c -0.547,0.609 -0.875,1.339 -1.239,2.07 0.348,-1.281 1.063,-2.387 1.727,-3.504 l -0.488,1.434"
           style="fill:#d70751;fill-opacity:1;fill-rule:nonzero;stroke:none"
           id="path4606"
           inkscape:connector-curvature="0" />
        <path
           d="m 77.336,60.918 -0.234,-0.582 c -0.422,-3.027 -1.344,-6.02 -2.754,-8.789 1.558,2.926 2.562,6.125 2.988,9.371"
           style="fill:#d70751;fill-opacity:1;fill-rule:nonzero;stroke:none"
           id="path4608"
           inkscape:connector-curvature="0" />
        <path
           d="m 43.004,103.457 c 1.07,0.387 2.629,0.215 3.766,0.469 -1.481,-0.121 -2.95,-0.196 -4.407,-0.383 l 0.641,-0.086"
           style="fill:#d70751;fill-opacity:1;fill-rule:nonzero;stroke:none"
           id="path4610"
           inkscape:connector-curvature="0" />
        <path
           d="M 5.5,83.512 C 5.742,81.234 3.785,80.348 5.934,81.852 7.086,84.449 5.48,82.566 5.5,83.512"
           style="fill:#d70751;fill-opacity:1;fill-rule:nonzero;stroke:none"
           id="path4612"
           inkscape:connector-curvature="0" />
        <path
           d="m 2.969,72.965 c 0.496,1.523 0.59,2.426 0.777,3.316 C 2.379,74.527 3.113,74.152 2.969,72.965"
           style="fill:#d70751;fill-opacity:1;fill-rule:nonzero;stroke:none"
           id="path4614"
           inkscape:connector-curvature="0" />
      </g>
    </g>
  </g>
  <g
     inkscape:groupmode="layer"
     id="layer7"
     inkscape:label="Calque 3">
    <text
       y="86.440933"
       x="32.532902"
       transform="scale(1.0024677,0.99753838)"
       style="font-variant:normal;font-weight:bold;font-size:59.1245575px;font-family:'Amatic SC';-inkscape-font-specification:AmaticSC-Bold;writing-mode:lr-tb;display:inline;fill:#ffffff;fill-opacity:1;fill-rule:nonzero;stroke:none;stroke-width:0.64133382"
       id="text40">
      <tspan
         style="font-size:63.0777359px;fill:#ffffff;fill-opacity:1;stroke-width:0.64133382"
         x="32.532902 59.31625 72.678391 100.99899 114.36132 136.65126 159.05971 175.85106 192.70155 212.62665 233.91138 262.23218"
         y="86.440933"
         sodipodi:role="line"
         id="tspan38">Mini-DebConf</tspan>
    </text>
  </g>
  <g
     inkscape:groupmode="layer"
     id="layer8"
     inkscape:label="Calque 4">
    <text
       xml:space="preserve"
       style="font-style:normal;font-weight:normal;font-size:3.40144944px;line-height:2.89896274px;font-family:Sans;letter-spacing:0px;word-spacing:0px;display:inline;fill:#000000;fill-opacity:1;stroke:none;stroke-width:0.1159585px;stroke-linecap:butt;stroke-linejoin:miter;stroke-opacity:1"
       x="71.28022"
       y="326.84528"
       id="text4541"><tspan
         sodipodi:role="line"
         x="71.28022"
         y="326.84528"
         style="font-style:normal;font-variant:normal;font-weight:bold;font-stretch:normal;font-size:43.29117584px;font-family:'Amatic SC';-inkscape-font-specification:'Amatic SC, Bold';font-variant-ligatures:normal;font-variant-caps:normal;font-variant-numeric:normal;font-feature-settings:normal;text-align:start;writing-mode:lr-tb;text-anchor:start;fill:#ffffff;stroke-width:0.1159585px"
         id="tspan4593">MAY 25TH-26TH</tspan></text>
    <text
       xml:space="preserve"
       style="font-style:normal;font-weight:normal;font-size:3.40144944px;line-height:2.89896274px;font-family:Sans;letter-spacing:0px;word-spacing:0px;display:inline;fill:#ffffff;fill-opacity:1;stroke:none;stroke-width:0.1159585px;stroke-linecap:butt;stroke-linejoin:miter;stroke-opacity:1"
       x="114.53117"
       y="398.38501"
       id="text4609"><tspan
         sodipodi:role="line"
         id="tspan4607"
         x="114.53117"
         y="398.38501"
         style="font-style:normal;font-variant:normal;font-weight:bold;font-stretch:normal;font-size:64.93676758px;font-family:'Amatic SC';-inkscape-font-specification:'Amatic SC, Bold';font-variant-ligatures:normal;font-variant-caps:normal;font-variant-numeric:normal;font-feature-settings:normal;text-align:start;writing-mode:lr-tb;text-anchor:start;fill:#ffffff;fill-opacity:1;stroke-width:0.1159585px">2019</tspan></text>
  </g>
</svg>
