<?xml version="1.0" encoding="UTF-8" standalone="no"?>
<!-- Created with Inkscape (http://www.inkscape.org/) -->

<svg
   xmlns:dc="http://purl.org/dc/elements/1.1/"
   xmlns:cc="http://creativecommons.org/ns#"
   xmlns:rdf="http://www.w3.org/1999/02/22-rdf-syntax-ns#"
   xmlns:svg="http://www.w3.org/2000/svg"
   xmlns="http://www.w3.org/2000/svg"
   xmlns:sodipodi="http://sodipodi.sourceforge.net/DTD/sodipodi-0.dtd"
   xmlns:inkscape="http://www.inkscape.org/namespaces/inkscape"
   version="1.1"
   id="svg4526"
   xml:space="preserve"
   width="1000"
   height="1000"
   viewBox="0 0 1000 1000"
   sodipodi:docname="miniDebConfLogoRond.svg"
   inkscape:version="0.92.1 r15371"
   inkscape:export-filename="/home/jlecour/work/minidebconfmrs/2019-organization/graphics/miniDebConfLogoRond.png"
   inkscape:export-xdpi="300"
   inkscape:export-ydpi="300"><metadata
     id="metadata4532"><rdf:RDF><cc:Work
         rdf:about=""><dc:format>image/svg+xml</dc:format><dc:type
           rdf:resource="http://purl.org/dc/dcmitype/StillImage" /><dc:title /></cc:Work></rdf:RDF></metadata><defs
     id="defs4530" /><sodipodi:namedview
     pagecolor="#ffffff"
     bordercolor="#666666"
     borderopacity="1"
     objecttolerance="10"
     gridtolerance="10"
     guidetolerance="10"
     inkscape:pageopacity="0"
     inkscape:pageshadow="2"
     inkscape:window-width="1276"
     inkscape:window-height="1041"
     id="namedview4528"
     showgrid="false"
     inkscape:zoom="0.3337544"
     inkscape:cx="-270.36987"
     inkscape:cy="623.03426"
     inkscape:window-x="2720"
     inkscape:window-y="37"
     inkscape:window-maximized="0"
     inkscape:current-layer="g4534"
     showguides="true"
     inkscape:guide-bbox="true"><sodipodi:guide
       position="500.36794,-8.9886455"
       orientation="1,0"
       id="guide4593"
       inkscape:locked="false" /></sodipodi:namedview><g
     inkscape:groupmode="layer"
     id="layer1"
     inkscape:label="fond"
     transform="matrix(1.3333333,0,0,-1.3333333,0,1000)"><g
       id="g4536"
       inkscape:export-filename="/home/jlecour/g4536.png"
       inkscape:export-xdpi="300"
       inkscape:export-ydpi="300"><path
         d="M 750,375 C 750,275.543 710.492,180.16 640.164,109.836 569.84,39.508 474.457,0 375,0 275.543,0 180.16,39.508 109.836,109.836 39.508,180.16 0,275.543 0,375 0,474.457 39.508,569.84 109.836,640.164 180.16,710.492 275.543,750 375,750 474.457,750 569.84,710.492 640.164,640.164 710.492,569.84 750,474.457 750,375 Z"
         style="fill:#708894;fill-opacity:1;fill-rule:nonzero;stroke:none"
         id="path4538"
         inkscape:connector-curvature="0"
         inkscape:export-filename="/home/jlecour/g4509.png"
         inkscape:export-xdpi="300"
         inkscape:export-ydpi="300" /></g></g><g
     id="g4534"
     inkscape:groupmode="layer"
     inkscape:label="miniDebConfLogoRond"
     transform="matrix(1.3333333,0,0,-1.3333333,0,1000)"><text
       transform="scale(1.0024677,-0.99753837)"
       style="font-variant:normal;font-weight:bold;font-size:75.90276337px;font-family:'Amatic SC';-inkscape-font-specification:AmaticSC-Bold;writing-mode:lr-tb;fill:#ffffff;fill-opacity:1;fill-rule:nonzero;stroke:none;stroke-width:0.99753839"
       id="text4564"
       x="93.690147"
       y="-218.50864"
       inkscape:export-filename="/home/jlecour/g4509.png"
       inkscape:export-xdpi="300"
       inkscape:export-ydpi="300"><tspan
         x="93.690147 128.0741 145.22812 181.58554 198.73956 227.3549 256.12204 277.67844 299.31073 324.88995 352.21494 388.57236"
         y="-218.50864"
         sodipodi:role="line"
         id="tspan4562"
         style="stroke-width:0.99753839">Mini-DebConf</tspan></text>
<text
       transform="scale(1.0024677,-0.99753837)"
       style="font-variant:normal;font-size:66.02890778px;font-family:CairoFont-1;-inkscape-font-specification:CairoFont-1-0;writing-mode:lr-tb;fill:#d70751;fill-opacity:1;fill-rule:nonzero;stroke:none;stroke-width:0.99753839"
       id="text4568"
       x="438.44391"
       y="-223.79834"
       inkscape:export-filename="/home/jlecour/g4509.png"
       inkscape:export-xdpi="300"
       inkscape:export-ydpi="300"><tspan
         x="438.44391 481.62683 506.32162 525.93225 545.01459 566.1438 580.73621 602.5918 624.38135"
         y="-223.79834"
         sodipodi:role="line"
         id="tspan4566"
         style="font-style:normal;font-variant:normal;font-weight:normal;font-stretch:normal;font-family:FabfeltScript;-inkscape-font-specification:FabfeltScript;stroke-width:0.99753839">Marseille</tspan></text>
<path
       d="m 332.176,323.449 c 0.531,0.516 1.121,1.024 0,1.797 -1.645,0.715 -1.84,3.645 1.125,3.145 6.238,4.683 14.988,0.359 13.676,-3.239 l 5.25,0.211 c 1.648,2.133 0.23,1.367 0.355,3.5 0.801,1.36 2.25,0.649 3.477,1.996 -0.309,2.571 0.703,3.797 -0.993,4.868 1.106,0.714 1.536,1.765 1.149,3.222 l 18.648,5.395 0.449,0.672 -1.796,0.449 2.246,2.246 0.226,1.574 0.899,0.676 0.449,6.289 6.965,2.922 c -1.266,1.844 -0.067,3.168 1.574,2.922 0.25,0.828 -0.391,1.558 -1.07,2.285 0.906,0.117 1.629,0.359 1.82,0.961 5.23,1.348 6.187,1.539 8.461,3.492 2.887,0.273 0.715,0.856 1.687,1.98 l 1.27,-0.011 0.027,-1.242 2.024,0.449 0.066,4.754 0.781,-4.528 11.747,0.422 0.144,5.364 c -0.004,0.796 -0.734,1.316 -1.57,1.8 0.629,0.293 0.406,0.731 0.445,1.121 l 0.902,0.227 c -0.191,7.227 -0.375,5.242 -0.226,7.863 0.191,0.899 -0.649,1.242 -1.332,2.141 l 1.109,0.105 4.227,8.114 6.675,0.004 c -0.121,3.601 1.399,8.332 -0.792,10.531 1.015,1.844 -0.161,2.695 -0.282,4.07 1.934,0.645 1.68,2.531 2.856,4.305 0.097,0.722 0.816,0.07 0.965,0.676 1.824,7.589 5.933,10.546 10.39,11.839 1.028,3.684 0.492,6.321 0.672,9.438 h -1.121 l 0.066,0.566 0.989,0.121 0.515,1.336 0.61,-1.336 1.136,-0.238 0.106,-0.633 -0.953,-0.043 c -0.594,-2.961 -0.383,-7.929 1.14,-8.996 9.985,-5.097 9.399,-11.843 13.071,-17.144 l -0.071,22.734 c 0.43,2.496 -1.773,2.926 -2.695,4.359 l 1.481,0.844 c -0.133,1.281 1.128,2.617 -0.793,3.824 l 1.414,0.461 c -0.368,1.258 -0.02,2.614 -1.133,3.555 0.781,0.602 2.406,1.297 0.605,1.602 -0.246,0.664 -0.586,2.07 -1.414,1.953 1.231,-0.614 2.547,-1.117 2.742,0.469 0.071,0.566 1.305,-1.04 2.067,-0.774 0.035,-1.348 0.137,-2.476 -0.238,-5.242 1.652,-0.899 2.308,-0.699 2.921,-0.453 0.692,0.375 1.629,1.187 1.075,1.558 1.656,1.586 0.765,2.821 0.129,4.309 2.074,1.355 0.019,2.031 0.066,3.148 0.469,0.954 1.086,0.274 1.652,0.168 0.571,3.86 0.246,6.383 0,9.016 l -0.644,0.512 c -0.207,0.886 -0.008,1.695 0.312,2.472 1.149,0.27 1.793,0.953 2.313,1.746 1.39,2.547 0.871,3.125 0.265,4.981 0.766,0.453 0.118,1.156 0.317,2.223 1.797,1.082 0.742,6.812 0.992,9.976 -1.133,0.234 -1.457,2.004 -1.211,6.676 0.395,1.715 1.422,2.734 1.82,4.027 0.305,1.715 -0.515,3.477 1.692,3.637 1.703,-0.809 0.636,-2.57 1.609,-3.992 2.176,1.07 3.633,-0.477 4.219,-3.051 -0.555,-0.328 -1.121,-0.578 -1.777,-0.176 -0.141,-1.105 0.066,-2.363 0.546,-3.367 0.168,-0.453 0.907,-0.562 -0.464,-1.207 0.332,-3.461 1.566,-7.086 0.261,-10.262 l -1.148,0.516 c -0.063,-1.215 -0.5,-2.324 0.109,-3.731 0.422,-3.347 0.117,-6.648 3.504,-8.707 -0.012,-0.714 0.082,-1.441 -0.609,-2.05 l 0.051,-6.895 c 0.289,-1.57 0.046,-3.019 1.191,-4.777 0.059,-2.168 0.148,-4.332 -0.199,-6.606 H 478 c 0.648,2.407 -1.148,4.078 -0.145,6.977 l 0.95,0.183 c -0.114,2.313 2.183,0.114 3.726,0.993 0.121,-1.684 -0.875,-2.34 -2.062,-3.063 l 1.929,-0.672 c -0.168,-0.859 0.258,-1.414 -0.703,-2.129 -0.761,-1.187 0.606,-1.843 0.11,-3.332 -1.207,-1.984 0.484,-3.32 1.523,-3.98 -1.246,-1.266 -2.914,-2.414 -2.465,-4.293 0.09,-5.402 -0.242,-12.285 0.032,-16.215 1.593,-2.195 1.078,-1.906 -0.25,-4.398 l 0.621,-24.731 2.375,-0.211 -0.067,-3.582 0.848,-0.234 0.164,-2.024 -0.902,0.051 c -0.438,-7.703 -0.149,-17.426 -0.071,-25.558 l 3.532,0.039 0.105,-1.864 17.43,-0.515 c 3.988,1.199 8.34,1.468 12.453,1.945 l 2.281,0.152 -0.172,1.711 1.746,-0.082 0.289,-1.625 c 7.567,0.676 6.258,1.477 8.926,2.34 h 5.352 l 3.633,4.004 c 0.312,1.152 -0.899,3.695 1.585,2.867 l 15.043,0.051 c 0.075,-12.047 2.071,-23.18 8.215,-29.664 0.754,2.496 2.625,2.328 3.836,0.762 4.875,2.98 7.574,2.339 10.688,-1.211 1.09,0.168 1.562,-0.157 2.019,-1.629 3.617,-0.66 3.809,-0.578 4.86,-3.988 2.543,0.511 1.601,-0.743 0.086,-4.102 3.519,1.016 5.367,1.555 5.98,-0.027 0.52,-0.793 -0.008,-2.918 2.414,-1.262 1.555,0.148 1.59,-1.125 2.02,-2.024 21.269,-9.726 22.035,-19.3 21.863,-22.468 H 299.828 c 10.508,19.402 9.953,14.539 32.348,20.898 z"
       style="fill:#ffffff;fill-opacity:1;fill-rule:nonzero;stroke:none"
       id="path4572"
       inkscape:connector-curvature="0"
       inkscape:export-filename="/home/jlecour/g4509.png"
       inkscape:export-xdpi="300"
       inkscape:export-ydpi="300" /><text
       transform="scale(1.0024677,-0.99753837)"
       style="font-variant:normal;font-weight:bold;font-size:143.06420898px;font-family:'Amatic SC';-inkscape-font-specification:AmaticSC-Bold;writing-mode:lr-tb;fill:#ffffff;fill-opacity:1;fill-rule:nonzero;stroke:none;stroke-width:1.88019562"
       id="text4564-3"
       x="289.42319"
       y="-69.610985"
       inkscape:export-filename="/home/jlecour/g4509.png"
       inkscape:export-xdpi="300"
       inkscape:export-ydpi="300"><tspan
         sodipodi:role="line"
         id="tspan4562-3"
         style="stroke-width:1.88019562"
         x="289.42319"
         y="-69.610985">2019</tspan></text>
<g
       transform="matrix(1.213542,0,0,-1.213542,-648.0127,609.23185)"
       id="g4509"
       inkscape:export-filename="/home/jlecour/g4509.png"
       inkscape:export-xdpi="300"
       inkscape:export-ydpi="300"><g
         id="g5185"
         transform="matrix(3.1667914,0,0,-3.1667914,632.48678,279.86426)"><path
           d="m 48.684,53.547 c -1.582,-0.024 0.296,-0.817 2.363,-1.129 0.57,0.441 1.086,0.891 1.547,1.328 C 51.309,53.434 50,53.43 48.684,53.547"
           style="fill:#d70751;fill-opacity:1;fill-rule:nonzero;stroke:none"
           id="path4592"
           inkscape:connector-curvature="0" /><path
           d="m 57.164,55.664 c 0.941,1.293 1.629,2.715 1.867,4.188 -0.211,-1.043 -0.777,-1.954 -1.312,-2.907 -2.953,-1.859 -0.281,1.106 -0.004,2.231 -3.172,-4 -0.434,-2.399 -0.551,-3.512"
           style="fill:#d70751;fill-opacity:1;fill-rule:nonzero;stroke:none"
           id="path4594"
           inkscape:connector-curvature="0" /><path
           d="m 60.297,63.809 c 0.187,2.843 -0.563,1.945 -0.817,0.855 0.297,-0.148 0.532,-2.008 0.817,-0.855"
           style="fill:#d70751;fill-opacity:1;fill-rule:nonzero;stroke:none"
           id="path4596"
           inkscape:connector-curvature="0" /><path
           d="m 42.691,102.695 c 0.84,-0.144 1.825,-0.265 1.684,-0.461 0.922,0.196 1.133,0.383 -1.684,0.461"
           style="fill:#d70751;fill-opacity:1;fill-rule:nonzero;stroke:none"
           id="path4598"
           inkscape:connector-curvature="0" /><path
           d="m 44.375,102.234 -0.594,-0.125 0.555,0.051 0.039,0.074"
           style="fill:#d70751;fill-opacity:1;fill-rule:nonzero;stroke:none"
           id="path4600"
           inkscape:connector-curvature="0" /><path
           d="m 70.672,62.727 c 0.094,-2.555 -0.746,-3.793 -1.508,-5.993 l -1.363,-0.675 c -1.117,-2.176 0.113,-1.383 -0.696,-3.11 -1.742,-1.547 -5.289,-4.847 -6.425,-5.156 -0.828,0.023 0.562,0.98 0.742,1.359 -2.336,-1.601 -1.875,-2.41 -5.445,-3.386 l -0.106,0.23 c -8.809,-4.141 -21.047,4.074 -20.883,15.277 -0.097,-0.707 -0.269,-0.527 -0.465,-0.816 -0.453,5.762 2.665,11.555 7.922,13.918 5.141,2.547 11.172,1.5 14.852,-1.93 -2.02,2.649 -6.047,5.453 -10.82,5.196 -4.672,-0.071 -9.047,-3.047 -10.512,-6.274 -2.391,-1.504 -2.672,-5.808 -3.711,-6.597 -1.41,-10.325 2.637,-14.778 9.484,-20.024 1.074,-0.726 0.301,-0.836 0.446,-1.391 -2.274,1.067 -4.356,2.676 -6.071,4.641 0.91,-1.332 1.895,-2.621 3.16,-3.637 -2.144,0.727 -5.007,5.196 -5.843,5.375 3.691,-6.617 14.988,-11.601 20.91,-9.129 -2.738,-0.097 -6.219,-0.05 -9.289,1.083 -1.297,0.667 -3.055,2.042 -2.739,2.296 8.075,-3.019 16.415,-2.277 23.399,3.321 1.777,1.383 3.719,3.742 4.281,3.765 -0.844,-1.265 0.145,-0.609 -0.504,-1.73 1.77,2.859 -0.769,1.164 1.828,4.933 l 0.961,-1.324 c -0.359,2.375 2.946,5.25 2.61,9 0.758,1.145 0.847,-1.234 0.039,-3.871 1.117,2.93 0.297,3.402 0.582,5.809 0.312,-0.809 0.715,-1.672 0.926,-2.528 -0.727,2.825 0.746,4.762 1.105,6.403 -0.355,0.164 -1.117,-1.246 -1.289,2.093 0.023,1.45 0.398,0.762 0.543,1.118 -0.281,0.164 -1.027,1.277 -1.481,3.41 0.325,0.504 0.879,-1.301 1.329,-1.375 -0.289,1.699 -0.789,2.988 -0.809,4.293 -1.309,2.738 -0.465,-0.367 -1.523,1.172 -1.399,4.351 1.156,1.011 1.328,2.988 2.113,-3.059 3.316,-7.809 3.871,-9.777 -0.422,2.402 -1.102,4.718 -1.938,6.968 0.645,-0.273 -1.031,4.93 0.836,1.485 -1.996,7.347 -8.543,14.211 -14.566,17.429 0.734,-0.679 1.668,-1.519 1.336,-1.656 -2.996,1.785 -2.473,1.926 -2.903,2.68 -2.437,0.988 -2.597,-0.086 -4.211,-0.004 -4.597,2.437 -5.488,2.176 -9.722,3.711 l 0.195,-0.902 c -3.047,1.015 -3.551,-0.383 -6.844,0 -0.199,0.152 1.059,0.562 2.09,0.714 -2.945,-0.386 -2.808,0.582 -5.691,-0.113 0.711,0.504 1.461,0.832 2.222,1.258 -2.406,-0.149 -5.738,-1.402 -4.71,-0.258 -3.914,-1.754 -10.875,-4.207 -14.778,-7.867 l -0.125,0.82 C 18.91,93.797 12.895,89.531 12.418,86.746 l -0.48,-0.105 C 11.008,85.066 10.406,83.273 9.664,81.656 8.449,79.578 7.883,80.852 8.055,80.531 5.66,75.676 4.469,71.59 3.441,68.246 4.172,67.152 3.457,61.656 3.734,57.262 2.531,35.535 18.98,14.438 36.961,9.578 c 2.637,-0.949 6.551,-0.914 9.887,-1.004 -3.934,1.117 -4.442,0.59 -8.27,1.93 -2.766,1.301 -3.371,2.785 -5.328,4.488 l 0.773,-1.375 c -3.839,1.36 -2.234,1.684 -5.355,2.672 l 0.828,1.082 c -1.246,0.094 -3.293,2.094 -3.855,3.207 l -1.364,-0.055 c -1.636,2.02 -2.507,3.473 -2.441,4.602 L 21.395,24.34 c -0.497,0.851 -6.02,7.57 -3.153,6.008 -0.535,0.48 -1.242,0.789 -2.008,2.183 l 0.582,0.664 c -1.375,1.774 -2.535,4.051 -2.445,4.805 0.734,-0.996 1.242,-1.18 1.746,-1.352 -3.476,8.633 -3.672,0.481 -6.305,8.793 l 0.551,0.043 c -0.425,0.641 -0.683,1.34 -1.027,2.028 l 0.242,2.418 c -2.504,2.89 -0.695,12.312 -0.336,17.476 0.25,2.102 2.09,4.344 3.488,7.844 l -0.851,0.148 c 1.633,2.84 9.309,11.422 12.863,10.981 1.723,2.164 -0.34,0.008 -0.676,0.551 3.782,3.914 4.973,2.765 7.524,3.468 2.758,1.637 -2.36,-0.632 -1.055,0.625 4.762,1.219 3.375,2.766 9.582,3.383 0.656,-0.375 -1.519,-0.574 -2.066,-1.058 3.969,1.941 12.554,1.5 18.129,-1.075 6.468,-3.027 13.738,-11.964 14.031,-20.378 l 0.324,-0.09 c -0.164,-3.34 0.512,-7.211 -0.66,-10.754 l 0.797,1.676"
           style="fill:#d70751;fill-opacity:1;fill-rule:nonzero;stroke:none"
           id="path4602"
           inkscape:connector-curvature="0" /><path
           d="M 31.438,51.375 31.215,50.27 c 1.039,-1.415 1.863,-2.938 3.187,-4.036 -0.953,1.856 -1.664,2.621 -2.964,5.141"
           style="fill:#d70751;fill-opacity:1;fill-rule:nonzero;stroke:none"
           id="path4604"
           inkscape:connector-curvature="0" /><path
           d="m 33.891,51.473 c -0.547,0.609 -0.875,1.339 -1.239,2.07 0.348,-1.281 1.063,-2.387 1.727,-3.504 l -0.488,1.434"
           style="fill:#d70751;fill-opacity:1;fill-rule:nonzero;stroke:none"
           id="path4606"
           inkscape:connector-curvature="0" /><path
           d="m 77.336,60.918 -0.234,-0.582 c -0.422,-3.027 -1.344,-6.02 -2.754,-8.789 1.558,2.926 2.562,6.125 2.988,9.371"
           style="fill:#d70751;fill-opacity:1;fill-rule:nonzero;stroke:none"
           id="path4608"
           inkscape:connector-curvature="0" /><path
           d="m 43.004,103.457 c 1.07,0.387 2.629,0.215 3.766,0.469 -1.481,-0.121 -2.95,-0.196 -4.407,-0.383 l 0.641,-0.086"
           style="fill:#d70751;fill-opacity:1;fill-rule:nonzero;stroke:none"
           id="path4610"
           inkscape:connector-curvature="0" /><path
           d="M 5.5,83.512 C 5.742,81.234 3.785,80.348 5.934,81.852 7.086,84.449 5.48,82.566 5.5,83.512"
           style="fill:#d70751;fill-opacity:1;fill-rule:nonzero;stroke:none"
           id="path4612"
           inkscape:connector-curvature="0" /><path
           d="m 2.969,72.965 c 0.496,1.523 0.59,2.426 0.777,3.316 C 2.379,74.527 3.113,74.152 2.969,72.965"
           style="fill:#d70751;fill-opacity:1;fill-rule:nonzero;stroke:none"
           id="path4614"
           inkscape:connector-curvature="0" /></g></g></g></svg>