<?xml version="1.0" encoding="UTF-8" standalone="no"?>
<!-- Created with Inkscape (http://www.inkscape.org/) -->

<svg
   xmlns:dc="http://purl.org/dc/elements/1.1/"
   xmlns:cc="http://creativecommons.org/ns#"
   xmlns:rdf="http://www.w3.org/1999/02/22-rdf-syntax-ns#"
   xmlns:svg="http://www.w3.org/2000/svg"
   xmlns="http://www.w3.org/2000/svg"
   xmlns:sodipodi="http://sodipodi.sourceforge.net/DTD/sodipodi-0.dtd"
   xmlns:inkscape="http://www.inkscape.org/namespaces/inkscape"
   version="1.1"
   id="svg2"
   width="1920"
   height="1080"
   viewBox="0 0 1920 1080"
   sodipodi:docname="slides_index.svg"
   inkscape:export-filename="/home/jcougnoux/eventure/img/banner/home-banner.png"
   inkscape:export-xdpi="500"
   inkscape:export-ydpi="500"
   inkscape:version="0.92.1 r15371">
  <metadata
     id="metadata8">
    <rdf:RDF>
      <cc:Work
         rdf:about="">
        <dc:format>image/svg+xml</dc:format>
        <dc:type
           rdf:resource="http://purl.org/dc/dcmitype/StillImage" />
        <dc:title></dc:title>
      </cc:Work>
    </rdf:RDF>
  </metadata>
  <defs
     id="defs6" />
  <sodipodi:namedview
     pagecolor="#ffffff"
     bordercolor="#666666"
     borderopacity="1"
     objecttolerance="10"
     gridtolerance="10"
     guidetolerance="10"
     inkscape:pageopacity="0"
     inkscape:pageshadow="2"
     inkscape:window-width="2556"
     inkscape:window-height="1041"
     id="namedview4"
     showgrid="false"
     inkscape:zoom="0.61239339"
     inkscape:cx="881.48305"
     inkscape:cy="675.63498"
     inkscape:window-x="1440"
     inkscape:window-y="37"
     inkscape:window-maximized="0"
     inkscape:current-layer="svg2"
     showguides="true"
     inkscape:guide-bbox="true">
    <sodipodi:guide
       position="960.10064,790.65414"
       orientation="1,0"
       id="guide4769"
       inkscape:locked="false" />
  </sodipodi:namedview>
  <path
     inkscape:connector-curvature="0"
     id="path14"
     style="fill:#708894;fill-opacity:1;fill-rule:nonzero;stroke:none;stroke-width:1.92886841"
     d="M 1e-5,1080 H 1920 V -10 H 1e-5 Z" />
  <g
     transform="matrix(1.1104546,0,0,-1.0469654,543.57953,927.36016)"
     id="g4605">
    <text
       y="-99.866425"
       x="-89.195198"
       transform="scale(1.0024677,-0.99753838)"
       style="font-variant:normal;font-weight:bold;font-size:125.41117859px;font-family:'Amatic SC';-inkscape-font-specification:AmaticSC-Bold;writing-mode:lr-tb;fill:#ffffff;fill-opacity:1;fill-rule:nonzero;stroke:none;stroke-width:1.36035597"
       id="text40">
      <tspan
         style="stroke-width:1.36035597"
         x="-89.195198 -32.383934 -4.0410104 56.030941 84.373871 131.6539 179.18471 214.80151 250.54367 292.80725 337.95526 398.02722"
         y="-99.866425"
         sodipodi:role="line"
         id="tspan38">Mini-DebConf</tspan>
    </text>
    <text
       y="-108.60641"
       x="480.42801"
       transform="scale(1.0024677,-0.99753838)"
       style="font-variant:normal;font-size:109.09699249px;font-family:CairoFont-1;-inkscape-font-specification:CairoFont-1-0;writing-mode:lr-tb;fill:#d70751;fill-opacity:1;fill-rule:nonzero;stroke:none;stroke-width:1.36035597"
       id="text44">
      <tspan
         x="480.42801 551.77747 592.57971 624.98151 656.51056 691.42169 715.53204 751.64319 787.64514"
         y="-108.60641"
         sodipodi:role="line"
         id="tspan42"
         style="font-style:normal;font-variant:normal;font-weight:normal;font-stretch:normal;font-family:FabfeltScript;-inkscape-font-specification:FabfeltScript;stroke-width:1.36035597">Marseille</tspan>
    </text>
    <path
       d="m 304.24649,273.89698 c 0.8796,0.85232 1.8492,1.69374 0,2.9729 -2.72197,1.17688 -3.04108,6.01943 1.85874,5.19302 10.30285,7.74043 24.76639,0.5973 22.59263,-5.35394 l 8.67731,0.35184 c 2.72197,3.52656 0.37911,2.25831 0.5864,5.77941 1.32143,2.24877 3.71748,1.07597 5.74259,3.30292 -0.51139,4.2466 1.16052,6.27035 -1.63509,8.03908 1.82192,1.18234 2.52969,2.91835 1.89556,5.32667 l 30.81173,8.91186 0.74049,1.11415 -2.96743,0.7405 3.71339,3.71203 0.37229,2.59923 1.48099,1.11416 0.74595,10.39285 11.50701,4.82618 c -2.08921,3.04654 -0.11182,5.23666 2.59924,4.82618 0.41457,1.36917 -0.64504,2.57878 -1.76874,3.77749 1.49736,0.19637 2.6947,0.59594 3.00972,1.59281 8.64048,2.22149 10.22239,2.5406 13.97805,5.76305 4.76754,0.45276 1.18234,1.4169 2.79152,3.27701 l 2.09876,-0.0218 0.0423,-2.05103 3.33974,0.7405 0.11182,7.85771 1.29007,-7.48542 19.41109,0.69822 0.24002,8.86414 c -0.005,1.31598 -1.21507,2.17375 -2.59924,2.97289 1.03779,0.48412 0.67095,1.20961 0.7405,1.85329 l 1.48508,0.37365 c -0.31365,11.94204 -0.61776,8.66094 -0.37229,12.9921 0.3191,1.48644 -1.07052,2.05102 -2.19967,3.53747 l 1.83146,0.17592 6.98494,13.40257 11.03107,0.005 c -0.20183,5.95534 2.30741,13.76941 -1.31052,17.40234 1.67327,3.0479 -0.26593,4.45389 -0.4623,6.72311 3.18972,1.06506 2.7697,4.18659 4.71435,7.11721 0.15956,1.19325 1.35281,0.11183 1.59282,1.11279 3.01517,12.5448 9.80646,17.42962 17.16778,19.56656 1.70055,6.08352 0.8155,10.44058 1.11415,15.59133 h -1.85465 l 0.10774,0.93823 1.63509,0.19774 0.85232,2.20512 1.00642,-2.20512 1.87511,-0.39548 0.17591,-1.04324 -1.57099,-0.0695 c -0.98051,-4.89573 -0.63413,-13.10392 1.88056,-14.8672 16.49683,-8.42229 15.53269,-19.56655 21.59439,-28.32431 l -0.11182,37.56074 c 0.70913,4.12387 -2.92926,4.83164 -4.45253,7.20177 l 2.44514,1.39644 c -0.21819,2.11512 1.8642,4.3257 -1.31053,6.31808 l 2.33877,0.76095 c -0.61367,2.0783 -0.0382,4.32025 -1.8751,5.87624 1.2887,0.99006 3.97385,2.14103 1.00096,2.64152 -0.40502,1.09778 -0.9696,3.42019 -2.33877,3.2279 2.03466,-1.01187 4.20842,-1.84237 4.53298,0.77868 0.11728,0.93142 2.15331,-1.721 3.41474,-1.27916 0.0586,-2.22694 0.22365,-4.09114 -0.39411,-8.66639 2.72742,-1.481 3.8143,-1.15098 4.82618,-0.74595 1.14552,0.61776 2.69606,1.95965 1.77419,2.57878 2.73833,2.6156 1.26825,4.66117 0.21274,7.11585 3.42565,2.23785 0.0327,3.3561 0.11182,5.19984 0.77323,1.57645 1.79601,0.45275 2.72743,0.28229 0.94369,6.37672 0.41048,10.5415 0,14.89447 l -1.06506,0.84686 c -0.34093,1.46463 -0.0109,2.79698 0.5223,4.08569 1.89693,0.44184 2.96199,1.57099 3.81976,2.88152 2.29513,4.20842 1.43735,5.16711 0.43639,8.23001 1.26825,0.75141 0.19228,1.91329 0.5223,3.67112 2.96744,1.78919 1.22462,11.25608 1.64055,16.48728 -1.86965,0.38321 -2.40832,3.30701 -2.0033,11.03108 0.65595,2.8297 2.35514,4.51798 3.00972,6.65355 0.50184,2.83516 -0.85232,5.7426 2.79152,6.00443 2.81879,-1.33235 1.05551,-4.2466 2.66333,-6.59491 3.59611,1.76873 6.00443,-0.78823 6.96857,-5.04029 -0.91641,-0.54276 -1.84919,-0.95323 -2.93607,-0.28638 -0.23456,-1.82737 0.10637,-3.91113 0.9055,-5.56667 0.2782,-0.75141 1.49191,-0.92733 -0.77186,-1.99239 0.54821,-5.72214 2.58833,-11.70884 0.43639,-16.9564 l -1.89556,0.85232 c -0.10637,-2.00875 -0.83187,-3.84022 0.17592,-6.16399 0.69686,-5.53394 0.19637,-10.98334 5.79032,-14.38717 -0.0164,-1.17824 0.13228,-2.38104 -1.00778,-3.38882 l 0.0859,-11.39382 c 0.47867,-2.5897 0.075,-4.98574 1.96511,-7.88908 0.10228,-3.5852 0.24547,-7.1595 -0.33001,-10.91516 h 7.6286 c 1.06506,3.97386 -1.90237,6.7381 -0.24546,11.52746 l 1.57236,0.30411 c -0.18683,3.8184 3.60565,0.18547 6.15716,1.64055 0.19774,-2.78607 -1.44281,-3.86749 -3.40928,-5.06074 l 3.19109,-1.11415 c -0.27684,-1.4169 0.42684,-2.33332 -1.16189,-3.51566 -1.26143,-1.95965 0.99688,-3.04653 0.18138,-5.50258 -1.99784,-3.28109 0.79913,-5.49167 2.51468,-6.57855 -2.05647,-2.0933 -4.81527,-3.99022 -4.06932,-7.08994 0.14865,-8.93368 -0.40502,-20.3016 0.0477,-26.7956 2.63061,-3.62747 1.78374,-3.14745 -0.41593,-7.26586 l 1.02824,-40.86366 3.92613,-0.34638 -0.10637,-5.91851 1.39508,-0.38866 0.27138,-3.33973 -1.49054,0.0805 c -0.72004,-12.72617 -0.24547,-28.79344 -0.11182,-42.22737 l 5.8326,0.0641 0.17046,-3.07926 28.80298,-0.85232 c 6.58401,1.98147 13.77623,2.42877 20.57297,3.21154 l 3.77203,0.25638 -0.28229,2.82288 2.88153,-0.13228 0.47866,-2.68515 c 12.50252,1.11825 10.33967,2.43969 14.74583,3.86204 l 8.84231,0.005 6.00443,6.60992 c 0.51685,1.90783 -1.48644,6.1108 2.62106,4.74163 l 24.84957,0.0845 c 0.12274,-19.90612 3.4202,-38.30124 13.57849,-49.01321 1.24098,4.12251 4.33661,3.84567 6.33445,1.25735 8.05954,4.92709 12.51752,3.86749 17.65872,-2.0033 1.8001,0.28229 2.58423,-0.25501 3.33973,-2.6906 5.97716,-1.09097 6.29217,-0.95324 8.02818,-6.58946 4.20296,0.84823 2.64151,-1.22462 0.13773,-6.77493 5.8176,1.67737 8.86959,2.56651 9.88283,-0.0436 0.85778,-1.30916 -0.0109,-4.82618 3.98886,-2.08784 2.56787,0.24547 2.62651,-1.85874 3.3411,-3.34519 35.14152,-16.07136 36.40431,-31.8877 36.12203,-37.1189 h -525.3704 c 17.36007,32.05271 16.44911,24.02044 53.45073,34.52512 z"
       style="fill:#ffffff;fill-opacity:1;fill-rule:nonzero;stroke:none;stroke-width:1.36371291"
       id="path48"
       inkscape:connector-curvature="0" />
    <g
       id="g5185"
       transform="matrix(6.3359608,0,0,6.3359608,-45.408277,185.70811)">
      <path
         d="m 48.684,53.547 c -1.582,-0.024 0.296,-0.817 2.363,-1.129 0.57,0.441 1.086,0.891 1.547,1.328 C 51.309,53.434 50,53.43 48.684,53.547"
         style="fill:#d70751;fill-opacity:1;fill-rule:nonzero;stroke:none"
         id="path4592"
         inkscape:connector-curvature="0" />
      <path
         d="m 57.164,55.664 c 0.941,1.293 1.629,2.715 1.867,4.188 -0.211,-1.043 -0.777,-1.954 -1.312,-2.907 -2.953,-1.859 -0.281,1.106 -0.004,2.231 -3.172,-4 -0.434,-2.399 -0.551,-3.512"
         style="fill:#d70751;fill-opacity:1;fill-rule:nonzero;stroke:none"
         id="path4594"
         inkscape:connector-curvature="0" />
      <path
         d="m 60.297,63.809 c 0.187,2.843 -0.563,1.945 -0.817,0.855 0.297,-0.148 0.532,-2.008 0.817,-0.855"
         style="fill:#d70751;fill-opacity:1;fill-rule:nonzero;stroke:none"
         id="path4596"
         inkscape:connector-curvature="0" />
      <path
         d="m 42.691,102.695 c 0.84,-0.144 1.825,-0.265 1.684,-0.461 0.922,0.196 1.133,0.383 -1.684,0.461"
         style="fill:#d70751;fill-opacity:1;fill-rule:nonzero;stroke:none"
         id="path4598"
         inkscape:connector-curvature="0" />
      <path
         d="m 44.375,102.234 -0.594,-0.125 0.555,0.051 0.039,0.074"
         style="fill:#d70751;fill-opacity:1;fill-rule:nonzero;stroke:none"
         id="path4600"
         inkscape:connector-curvature="0" />
      <path
         d="m 70.672,62.727 c 0.094,-2.555 -0.746,-3.793 -1.508,-5.993 l -1.363,-0.675 c -1.117,-2.176 0.113,-1.383 -0.696,-3.11 -1.742,-1.547 -5.289,-4.847 -6.425,-5.156 -0.828,0.023 0.562,0.98 0.742,1.359 -2.336,-1.601 -1.875,-2.41 -5.445,-3.386 l -0.106,0.23 c -8.809,-4.141 -21.047,4.074 -20.883,15.277 -0.097,-0.707 -0.269,-0.527 -0.465,-0.816 -0.453,5.762 2.665,11.555 7.922,13.918 5.141,2.547 11.172,1.5 14.852,-1.93 -2.02,2.649 -6.047,5.453 -10.82,5.196 -4.672,-0.071 -9.047,-3.047 -10.512,-6.274 -2.391,-1.504 -2.672,-5.808 -3.711,-6.597 -1.41,-10.325 2.637,-14.778 9.484,-20.024 1.074,-0.726 0.301,-0.836 0.446,-1.391 -2.274,1.067 -4.356,2.676 -6.071,4.641 0.91,-1.332 1.895,-2.621 3.16,-3.637 -2.144,0.727 -5.007,5.196 -5.843,5.375 3.691,-6.617 14.988,-11.601 20.91,-9.129 -2.738,-0.097 -6.219,-0.05 -9.289,1.083 -1.297,0.667 -3.055,2.042 -2.739,2.296 8.075,-3.019 16.415,-2.277 23.399,3.321 1.777,1.383 3.719,3.742 4.281,3.765 -0.844,-1.265 0.145,-0.609 -0.504,-1.73 1.77,2.859 -0.769,1.164 1.828,4.933 l 0.961,-1.324 c -0.359,2.375 2.946,5.25 2.61,9 0.758,1.145 0.847,-1.234 0.039,-3.871 1.117,2.93 0.297,3.402 0.582,5.809 0.312,-0.809 0.715,-1.672 0.926,-2.528 -0.727,2.825 0.746,4.762 1.105,6.403 -0.355,0.164 -1.117,-1.246 -1.289,2.093 0.023,1.45 0.398,0.762 0.543,1.118 -0.281,0.164 -1.027,1.277 -1.481,3.41 0.325,0.504 0.879,-1.301 1.329,-1.375 -0.289,1.699 -0.789,2.988 -0.809,4.293 -1.309,2.738 -0.465,-0.367 -1.523,1.172 -1.399,4.351 1.156,1.011 1.328,2.988 2.113,-3.059 3.316,-7.809 3.871,-9.777 -0.422,2.402 -1.102,4.718 -1.938,6.968 0.645,-0.273 -1.031,4.93 0.836,1.485 -1.996,7.347 -8.543,14.211 -14.566,17.429 0.734,-0.679 1.668,-1.519 1.336,-1.656 -2.996,1.785 -2.473,1.926 -2.903,2.68 -2.437,0.988 -2.597,-0.086 -4.211,-0.004 -4.597,2.437 -5.488,2.176 -9.722,3.711 l 0.195,-0.902 c -3.047,1.015 -3.551,-0.383 -6.844,0 -0.199,0.152 1.059,0.562 2.09,0.714 -2.945,-0.386 -2.808,0.582 -5.691,-0.113 0.711,0.504 1.461,0.832 2.222,1.258 -2.406,-0.149 -5.738,-1.402 -4.71,-0.258 -3.914,-1.754 -10.875,-4.207 -14.778,-7.867 l -0.125,0.82 C 18.91,93.797 12.895,89.531 12.418,86.746 l -0.48,-0.105 C 11.008,85.066 10.406,83.273 9.664,81.656 8.449,79.578 7.883,80.852 8.055,80.531 5.66,75.676 4.469,71.59 3.441,68.246 4.172,67.152 3.457,61.656 3.734,57.262 2.531,35.535 18.98,14.438 36.961,9.578 c 2.637,-0.949 6.551,-0.914 9.887,-1.004 -3.934,1.117 -4.442,0.59 -8.27,1.93 -2.766,1.301 -3.371,2.785 -5.328,4.488 l 0.773,-1.375 c -3.839,1.36 -2.234,1.684 -5.355,2.672 l 0.828,1.082 c -1.246,0.094 -3.293,2.094 -3.855,3.207 l -1.364,-0.055 c -1.636,2.02 -2.507,3.473 -2.441,4.602 L 21.395,24.34 c -0.497,0.851 -6.02,7.57 -3.153,6.008 -0.535,0.48 -1.242,0.789 -2.008,2.183 l 0.582,0.664 c -1.375,1.774 -2.535,4.051 -2.445,4.805 0.734,-0.996 1.242,-1.18 1.746,-1.352 -3.476,8.633 -3.672,0.481 -6.305,8.793 l 0.551,0.043 c -0.425,0.641 -0.683,1.34 -1.027,2.028 l 0.242,2.418 c -2.504,2.89 -0.695,12.312 -0.336,17.476 0.25,2.102 2.09,4.344 3.488,7.844 l -0.851,0.148 c 1.633,2.84 9.309,11.422 12.863,10.981 1.723,2.164 -0.34,0.008 -0.676,0.551 3.782,3.914 4.973,2.765 7.524,3.468 2.758,1.637 -2.36,-0.632 -1.055,0.625 4.762,1.219 3.375,2.766 9.582,3.383 0.656,-0.375 -1.519,-0.574 -2.066,-1.058 3.969,1.941 12.554,1.5 18.129,-1.075 6.468,-3.027 13.738,-11.964 14.031,-20.378 l 0.324,-0.09 c -0.164,-3.34 0.512,-7.211 -0.66,-10.754 l 0.797,1.676"
         style="fill:#d70751;fill-opacity:1;fill-rule:nonzero;stroke:none"
         id="path4602"
         inkscape:connector-curvature="0" />
      <path
         d="M 31.438,51.375 31.215,50.27 c 1.039,-1.415 1.863,-2.938 3.187,-4.036 -0.953,1.856 -1.664,2.621 -2.964,5.141"
         style="fill:#d70751;fill-opacity:1;fill-rule:nonzero;stroke:none"
         id="path4604"
         inkscape:connector-curvature="0" />
      <path
         d="m 33.891,51.473 c -0.547,0.609 -0.875,1.339 -1.239,2.07 0.348,-1.281 1.063,-2.387 1.727,-3.504 l -0.488,1.434"
         style="fill:#d70751;fill-opacity:1;fill-rule:nonzero;stroke:none"
         id="path4606"
         inkscape:connector-curvature="0" />
      <path
         d="m 77.336,60.918 -0.234,-0.582 c -0.422,-3.027 -1.344,-6.02 -2.754,-8.789 1.558,2.926 2.562,6.125 2.988,9.371"
         style="fill:#d70751;fill-opacity:1;fill-rule:nonzero;stroke:none"
         id="path4608"
         inkscape:connector-curvature="0" />
      <path
         d="m 43.004,103.457 c 1.07,0.387 2.629,0.215 3.766,0.469 -1.481,-0.121 -2.95,-0.196 -4.407,-0.383 l 0.641,-0.086"
         style="fill:#d70751;fill-opacity:1;fill-rule:nonzero;stroke:none"
         id="path4610"
         inkscape:connector-curvature="0" />
      <path
         d="M 5.5,83.512 C 5.742,81.234 3.785,80.348 5.934,81.852 7.086,84.449 5.48,82.566 5.5,83.512"
         style="fill:#d70751;fill-opacity:1;fill-rule:nonzero;stroke:none"
         id="path4612"
         inkscape:connector-curvature="0" />
      <path
         d="m 2.969,72.965 c 0.496,1.523 0.59,2.426 0.777,3.316 C 2.379,74.527 3.113,74.152 2.969,72.965"
         style="fill:#d70751;fill-opacity:1;fill-rule:nonzero;stroke:none"
         id="path4614"
         inkscape:connector-curvature="0" />
    </g>
    <text
       y="54.333786"
       x="375.48138"
       transform="scale(1.0024677,-0.99753837)"
       style="font-variant:normal;font-weight:bold;font-size:91.96304321px;font-family:'Amatic SC';-inkscape-font-specification:AmaticSC-Bold;text-align:center;writing-mode:lr-tb;text-anchor:middle;fill:#ffffff;fill-opacity:1;fill-rule:nonzero;stroke:none;stroke-width:0.99753839"
       id="text40-1">
      <tspan
         style="text-align:center;text-anchor:middle;stroke-width:0.99753839"
         sodipodi:role="line"
         id="tspan38-0"
         x="375.48138"
         y="54.333786">May 25-26th 2019</tspan>
    </text>
  </g>
</svg>
